<svg width="66" height="66" viewBox="0 0 66 66" fill="none"
    xmlns="http://www.w3.org/2000/svg">
    <defs>
        <linearGradient id="paint0_linear" x1="10.1538" y1="79.0465" x2="82.2153" y2="62.8252" gradientUnits="userSpaceOnUse">
            <stop stop-color="#B851FF"/>
            <stop offset="1" stop-color="#19F8E8"/>
        </linearGradient>
    </defs>
    <path fill-rule="evenodd" clip-rule="evenodd" d="M0 33C0 14.7746 14.7746 0 33 0C51.2254 0 66 14.7746 66 33V66H33C14.7746 66 0 51.2254 0 33ZM17.6 35.2H22V30.8H17.6V35.2ZM48.4 35.2H44V30.8H48.4V35.2ZM30.8 35.2H35.2V30.8H30.8V35.2Z" fill="url(#paint0_linear)"/>
</svg>
